{
  "artifactGenerations" : [ ],
  "artifactId" : "hqla_test_art1",
  "groupId" : "hqla_test_grp",
  "metamodelDependencies" : [ ],
  "projectDependencies" : [ ],
  "projectId" : "57502568",
  "projectStructureVersion" : {
    "extensionVersion" : 2,
    "version" : 12
  }
}